<?xml version="1.0" encoding="UTF-8" standalone="no"?>
<svg
   width="16"
   viewBox="0 0 16 16"
   height="16"
   id="svg4310"
   version="1.1"
   inkscape:version="1.2.2 (b0a8486541, 2022-12-01)"
   sodipodi:docname="reboot.svg"
   xmlns:inkscape="http://www.inkscape.org/namespaces/inkscape"
   xmlns:sodipodi="http://sodipodi.sourceforge.net/DTD/sodipodi-0.dtd"
   xmlns="http://www.w3.org/2000/svg"
   xmlns:svg="http://www.w3.org/2000/svg"
   xmlns:rdf="http://www.w3.org/1999/02/22-rdf-syntax-ns#"
   xmlns:cc="http://creativecommons.org/ns#"
   xmlns:dc="http://purl.org/dc/elements/1.1/">
  <metadata
     id="metadata4322">
    <rdf:RDF>
      <cc:Work
         rdf:about="">
        <dc:format>image/svg+xml</dc:format>
        <dc:type
           rdf:resource="http://purl.org/dc/dcmitype/StillImage" />
        <dc:title />
      </cc:Work>
    </rdf:RDF>
  </metadata>
  <sodipodi:namedview
     pagecolor="#ffffff"
     bordercolor="#666666"
     borderopacity="1"
     objecttolerance="10"
     gridtolerance="10"
     guidetolerance="10"
     inkscape:pageopacity="0"
     inkscape:pageshadow="2"
     inkscape:window-width="1366"
     inkscape:window-height="744"
     id="namedview4320"
     showgrid="false"
     inkscape:zoom="32"
     inkscape:cx="13.953125"
     inkscape:cy="7.734375"
     inkscape:window-x="0"
     inkscape:window-y="0"
     inkscape:window-maximized="1"
     inkscape:current-layer="svg4310"
     fit-margin-top="0"
     fit-margin-left="0"
     fit-margin-right="0"
     fit-margin-bottom="0"
     inkscape:showpageshadow="2"
     inkscape:pagecheckerboard="0"
     inkscape:deskcolor="#d1d1d1" />
  <defs
     id="defs4312" />
  <g
     id="g4763">
    <g
       id="g4734">
      <path
         inkscape:connector-curvature="0"
         id="path4316"
         d="M 5.5333883,0.50031154 C 2.3637866,1.5487935 0.08838834,4.561747 0.08838834,8.0490615 c 0,4.3456995 3.54457456,7.9509375 7.91999996,7.9509375 1.9927677,-0.0156 1.9799356,-1.959831 0,-1.949062 -3.2764839,0 -5.94,-2.668512 -5.94,-6.0018755 0,-2.4345676 1.4293399,-4.5021282 3.465,-5.445 z"
         style="color:#000000;line-height:normal;fill:#ffff00;fill-opacity:1"
         sodipodi:nodetypes="csccscc" />
      <rect
         style="fill:#ffff00;fill-opacity:1"
         id="rect4318"
         transform="scale(-1,1)"
         height="2.872442"
         ry="0"
         rx="0.99000001"
         y="13.024178"
         x="-8.0297537"
         width="1.98" />
      <rect
         style="fill:#ffff00;fill-opacity:1"
         id="rect4318-3"
         transform="matrix(-0.70710678,0.70710678,0.70710678,0.70710678,0,0)"
         height="3.809942"
         ry="0"
         rx="0.99000001"
         y="13.739765"
         x="3.6503892"
         width="1.98" />
    </g>
    <g
       id="g4734-3"
       transform="matrix(-1,0,0,-1,16.074522,16.031405)">
      <path
         inkscape:connector-curvature="0"
         id="path4316-2"
         d="M 5.5333883,0.50031154 C 2.3637866,1.5487935 0.08838834,4.561747 0.08838834,8.0490615 c 0,4.3456995 3.54457456,7.9509375 7.91999996,7.9509375 1.9927677,-0.0156 1.9799356,-1.959831 0,-1.949062 -3.2764839,0 -5.94,-2.668512 -5.94,-6.0018755 0,-2.4345676 1.4293399,-4.5021282 3.465,-5.445 z"
         style="color:#000000;line-height:normal;fill:#ffff00;fill-opacity:1"
         sodipodi:nodetypes="csccscc" />
      <rect
         style="fill:#dc322f;fill-opacity:1"
         id="rect4318-9"
         transform="scale(-1,1)"
         height="2.872442"
         ry="0"
         rx="0.99000001"
         y="13.024178"
         x="-8.0297537"
         width="1.98" />
      <rect
         style="fill:#ffff00;fill-opacity:1"
         id="rect4318-3-1"
         transform="matrix(-0.70710678,0.70710678,0.70710678,0.70710678,0,0)"
         height="3.809942"
         ry="0"
         rx="0.99000001"
         y="13.739765"
         x="3.6503892"
         width="1.98" />
    </g>
  </g>
</svg>
